GIT antigo/Gif e GifHub - IFCE/Quartus/DIV_CLK/simulation/qsim/DIV_CLK.msim.vcd
$comment
	File created using the following command:
		vcd file DIV_CLK.msim.vcd -direction
$end
$date
	Tue Feb 09 22:58:13 2021
$end
$version
	ModelSim Version 10.5b
$end
$timescale
	1ps
$end

$scope module div_clk_vhd_vec_tst $end
$var wire 1 ! IN_CLK $end
$var wire 1 " OUT_CLK $end

$scope module i1 $end
$var wire 1 # gnd $end
$var wire 1 $ vcc $end
$var wire 1 % unknown $end
$var wire 1 & devoe $end
$var wire 1 ' devclrn $end
$var wire 1 ( devpor $end
$var wire 1 ) ww_devoe $end
$var wire 1 * ww_devclrn $end
$var wire 1 + ww_devpor $end
$var wire 1 , ww_IN_CLK $end
$var wire 1 - ww_OUT_CLK $end
$var wire 1 . \~QUARTUS_CREATED_GND~I_combout\ $end
$var wire 1 / \IN_CLK~input_o\ $end
$var wire 1 0 \IN_CLK~inputCLKENA0_outclk\ $end
$var wire 1 1 \Y[0]~3_combout\ $end
$var wire 1 2 \Y[1]~2_combout\ $end
$var wire 1 3 \Y[1]~DUPLICATE_q\ $end
$var wire 1 4 \Y~0_combout\ $end
$var wire 1 5 \Y~1_combout\ $end
$var wire 1 6 \X~0_combout\ $end
$var wire 1 7 \X~q\ $end
$var wire 1 8 Y [3] $end
$var wire 1 9 Y [2] $end
$var wire 1 : Y [1] $end
$var wire 1 ; Y [0] $end
$var wire 1 < \ALT_INV_X~q\ $end
$var wire 1 = ALT_INV_Y [3] $end
$var wire 1 > ALT_INV_Y [2] $end
$var wire 1 ? ALT_INV_Y [1] $end
$var wire 1 @ ALT_INV_Y [0] $end
$var wire 1 A \ALT_INV_Y[1]~DUPLICATE_q\ $end
$upscope $end
$upscope $end
$enddefinitions $end
#0
$dumpvars
0!
0"
0#
1$
x%
1&
1'
1(
1)
1*
1+
0,
0-
x.
0/
00
11
02
03
04
05
06
07
1<
1A
08
09
0:
0;
1=
1>
1?
1@
$end
#10000
1!
1,
1/
10
1;
0@
01
12
#20000
0!
0,
0/
00
#30000
1!
1,
1/
10
0;
1:
13
0A
0?
1@
11
#40000
0!
0,
0/
00
#50000
1!
1,
1/
10
1;
0@
01
02
14
#60000
0!
0,
0/
00
#70000
1!
1,
1/
10
0;
0:
03
19
0>
1A
1?
1@
11
#80000
0!
0,
0/
00
#90000
1!
1,
1/
10
1;
0@
01
12
#100000
0!
0,
0/
00
#110000
1!
1,
1/
10
0;
1:
13
0A
0?
1@
11
#120000
0!
0,
0/
00
#130000
1!
1,
1/
10
1;
0@
01
02
04
15
#140000
0!
0,
0/
00
#150000
1!
1,
1/
10
0;
0:
03
09
18
0=
1>
1A
1?
1@
11
#160000
0!
0,
0/
00
#170000
1!
1,
1/
10
1;
0@
01
12
#180000
0!
0,
0/
00
#190000
1!
1,
1/
10
0;
1:
13
0A
0?
1@
11
#200000
0!
0,
0/
00
#210000
1!
1,
1/
10
1;
0@
01
02
05
16
#220000
0!
0,
0/
00
#230000
1!
1,
1/
10
0;
0:
03
08
17
0<
1=
1A
1?
1@
11
1-
1"
#240000
0!
0,
0/
00
#250000
1!
1,
1/
10
1;
0@
01
12
#260000
0!
0,
0/
00
#270000
1!
1,
1/
10
0;
1:
13
0A
0?
1@
11
#280000
0!
0,
0/
00
#290000
1!
1,
1/
10
1;
0@
01
02
14
#300000
0!
0,
0/
00
#310000
1!
1,
1/
10
0;
0:
03
19
0>
1A
1?
1@
11
#320000
0!
0,
0/
00
#330000
1!
1,
1/
10
1;
0@
01
12
#340000
0!
0,
0/
00
#350000
1!
1,
1/
10
0;
1:
13
0A
0?
1@
11
#360000
0!
0,
0/
00
#370000
1!
1,
1/
10
1;
0@
01
02
04
15
#380000
0!
0,
0/
00
#390000
1!
1,
1/
10
0;
0:
03
09
18
0=
1>
1A
1?
1@
11
#400000
0!
0,
0/
00
#410000
1!
1,
1/
10
1;
0@
01
12
#420000
0!
0,
0/
00
#430000
1!
1,
1/
10
0;
1:
13
0A
0?
1@
11
#440000
0!
0,
0/
00
#450000
1!
1,
1/
10
1;
0@
01
02
05
06
#460000
0!
0,
0/
00
#470000
1!
1,
1/
10
0;
0:
03
08
07
1<
1=
1A
1?
1@
11
0-
0"
#480000
0!
0,
0/
00
#490000
1!
1,
1/
10
1;
0@
01
12
#500000
0!
0,
0/
00
#510000
1!
1,
1/
10
0;
1:
13
0A
0?
1@
11
#520000
0!
0,
0/
00
#530000
1!
1,
1/
10
1;
0@
01
02
14
#540000
0!
0,
0/
00
#550000
1!
1,
1/
10
0;
0:
03
19
0>
1A
1?
1@
11
#560000
0!
0,
0/
00
#570000
1!
1,
1/
10
1;
0@
01
12
#580000
0!
0,
0/
00
#590000
1!
1,
1/
10
0;
1:
13
0A
0?
1@
11
#600000
0!
0,
0/
00
#610000
1!
1,
1/
10
1;
0@
01
02
04
15
#620000
0!
0,
0/
00
#630000
1!
1,
1/
10
0;
0:
03
09
18
0=
1>
1A
1?
1@
11
#640000
0!
0,
0/
00
#650000
1!
1,
1/
10
1;
0@
01
12
#660000
0!
0,
0/
00
#670000
1!
1,
1/
10
0;
1:
13
0A
0?
1@
11
#680000
0!
0,
0/
00
#690000
1!
1,
1/
10
1;
0@
01
02
05
16
#700000
0!
0,
0/
00
#710000
1!
1,
1/
10
0;
0:
03
08
17
0<
1=
1A
1?
1@
11
1-
1"
#720000
0!
0,
0/
00
#730000
1!
1,
1/
10
1;
0@
01
12
#740000
0!
0,
0/
00
#750000
1!
1,
1/
10
0;
1:
13
0A
0?
1@
11
#760000
0!
0,
0/
00
#770000
1!
1,
1/
10
1;
0@
01
02
14
#780000
0!
0,
0/
00
#790000
1!
1,
1/
10
0;
0:
03
19
0>
1A
1?
1@
11
#800000
0!
0,
0/
00
#810000
1!
1,
1/
10
1;
0@
01
12
#820000
0!
0,
0/
00
#830000
1!
1,
1/
10
0;
1:
13
0A
0?
1@
11
#840000
0!
0,
0/
00
#850000
1!
1,
1/
10
1;
0@
01
02
04
15
#860000
0!
0,
0/
00
#870000
1!
1,
1/
10
0;
0:
03
09
18
0=
1>
1A
1?
1@
11
#880000
0!
0,
0/
00
#890000
1!
1,
1/
10
1;
0@
01
12
#900000
0!
0,
0/
00
#910000
1!
1,
1/
10
0;
1:
13
0A
0?
1@
11
#920000
0!
0,
0/
00
#930000
1!
1,
1/
10
1;
0@
01
02
05
06
#940000
0!
0,
0/
00
#950000
1!
1,
1/
10
0;
0:
03
08
07
1<
1=
1A
1?
1@
11
0-
0"
#960000
0!
0,
0/
00
#970000
1!
1,
1/
10
1;
0@
01
12
#980000
0!
0,
0/
00
#990000
1!
1,
1/
10
0;
1:
13
0A
0?
1@
11
