GIT antigo/Gif e GifHub - IFCE/Quartus/FSM/simulation/qsim/FMS_Prova.msim.vcd
$comment
	File created using the following command:
		vcd file FMS_Prova.msim.vcd -direction
$end
$date
	Sun Feb 28 21:17:28 2021
$end
$version
	ModelSim Version 10.5b
$end
$timescale
	1ps
$end

$scope module fms_prova_vhd_vec_tst $end
$var wire 1 ! CLK $end
$var wire 1 " DISPLAY_0 [6] $end
$var wire 1 # DISPLAY_0 [5] $end
$var wire 1 $ DISPLAY_0 [4] $end
$var wire 1 % DISPLAY_0 [3] $end
$var wire 1 & DISPLAY_0 [2] $end
$var wire 1 ' DISPLAY_0 [1] $end
$var wire 1 ( DISPLAY_0 [0] $end
$var wire 1 ) IN_S1 $end
$var wire 1 * IN_S2 $end
$var wire 1 + OUT_C1 $end
$var wire 1 , OUT_C2 $end
$var wire 1 - OUT_C3 $end

$scope module i1 $end
$var wire 1 . gnd $end
$var wire 1 / vcc $end
$var wire 1 0 unknown $end
$var wire 1 1 devoe $end
$var wire 1 2 devclrn $end
$var wire 1 3 devpor $end
$var wire 1 4 ww_devoe $end
$var wire 1 5 ww_devclrn $end
$var wire 1 6 ww_devpor $end
$var wire 1 7 ww_CLK $end
$var wire 1 8 ww_OUT_C1 $end
$var wire 1 9 ww_OUT_C2 $end
$var wire 1 : ww_OUT_C3 $end
$var wire 1 ; ww_IN_S1 $end
$var wire 1 < ww_IN_S2 $end
$var wire 1 = ww_DISPLAY_0 [6] $end
$var wire 1 > ww_DISPLAY_0 [5] $end
$var wire 1 ? ww_DISPLAY_0 [4] $end
$var wire 1 @ ww_DISPLAY_0 [3] $end
$var wire 1 A ww_DISPLAY_0 [2] $end
$var wire 1 B ww_DISPLAY_0 [1] $end
$var wire 1 C ww_DISPLAY_0 [0] $end
$var wire 1 D \~QUARTUS_CREATED_ADC1~_CHSEL_bus\ [4] $end
$var wire 1 E \~QUARTUS_CREATED_ADC1~_CHSEL_bus\ [3] $end
$var wire 1 F \~QUARTUS_CREATED_ADC1~_CHSEL_bus\ [2] $end
$var wire 1 G \~QUARTUS_CREATED_ADC1~_CHSEL_bus\ [1] $end
$var wire 1 H \~QUARTUS_CREATED_ADC1~_CHSEL_bus\ [0] $end
$var wire 1 I \~QUARTUS_CREATED_ADC2~_CHSEL_bus\ [4] $end
$var wire 1 J \~QUARTUS_CREATED_ADC2~_CHSEL_bus\ [3] $end
$var wire 1 K \~QUARTUS_CREATED_ADC2~_CHSEL_bus\ [2] $end
$var wire 1 L \~QUARTUS_CREATED_ADC2~_CHSEL_bus\ [1] $end
$var wire 1 M \~QUARTUS_CREATED_ADC2~_CHSEL_bus\ [0] $end
$var wire 1 N \CLK~inputclkctrl_INCLK_bus\ [3] $end
$var wire 1 O \CLK~inputclkctrl_INCLK_bus\ [2] $end
$var wire 1 P \CLK~inputclkctrl_INCLK_bus\ [1] $end
$var wire 1 Q \CLK~inputclkctrl_INCLK_bus\ [0] $end
$var wire 1 R \CHIP1|X~clkctrl_INCLK_bus\ [3] $end
$var wire 1 S \CHIP1|X~clkctrl_INCLK_bus\ [2] $end
$var wire 1 T \CHIP1|X~clkctrl_INCLK_bus\ [1] $end
$var wire 1 U \CHIP1|X~clkctrl_INCLK_bus\ [0] $end
$var wire 1 V \~QUARTUS_CREATED_GND~I_combout\ $end
$var wire 1 W \~QUARTUS_CREATED_UNVM~~busy\ $end
$var wire 1 X \~QUARTUS_CREATED_ADC1~~eoc\ $end
$var wire 1 Y \~QUARTUS_CREATED_ADC2~~eoc\ $end
$var wire 1 Z \OUT_C1~output_o\ $end
$var wire 1 [ \OUT_C2~output_o\ $end
$var wire 1 \ \OUT_C3~output_o\ $end
$var wire 1 ] \DISPLAY_0[0]~output_o\ $end
$var wire 1 ^ \DISPLAY_0[1]~output_o\ $end
$var wire 1 _ \DISPLAY_0[2]~output_o\ $end
$var wire 1 ` \DISPLAY_0[3]~output_o\ $end
$var wire 1 a \DISPLAY_0[4]~output_o\ $end
$var wire 1 b \DISPLAY_0[5]~output_o\ $end
$var wire 1 c \DISPLAY_0[6]~output_o\ $end
$var wire 1 d \CLK~input_o\ $end
$var wire 1 e \CLK~inputclkctrl_outclk\ $end
$var wire 1 f \CHIP1|Add0~0_combout\ $end
$var wire 1 g \CHIP1|Add0~1\ $end
$var wire 1 h \CHIP1|Add0~2_combout\ $end
$var wire 1 i \CHIP1|Add0~3\ $end
$var wire 1 j \CHIP1|Add0~4_combout\ $end
$var wire 1 k \CHIP1|Add0~5\ $end
$var wire 1 l \CHIP1|Add0~6_combout\ $end
$var wire 1 m \CHIP1|Add0~7\ $end
$var wire 1 n \CHIP1|Add0~8_combout\ $end
$var wire 1 o \CHIP1|Add0~9\ $end
$var wire 1 p \CHIP1|Add0~10_combout\ $end
$var wire 1 q \CHIP1|Add0~11\ $end
$var wire 1 r \CHIP1|Add0~12_combout\ $end
$var wire 1 s \CHIP1|Y~1_combout\ $end
$var wire 1 t \CHIP1|Add0~13\ $end
$var wire 1 u \CHIP1|Add0~14_combout\ $end
$var wire 1 v \CHIP1|Add0~15\ $end
$var wire 1 w \CHIP1|Add0~16_combout\ $end
$var wire 1 x \CHIP1|Y~0_combout\ $end
$var wire 1 y \CHIP1|Add0~17\ $end
$var wire 1 z \CHIP1|Add0~18_combout\ $end
$var wire 1 { \CHIP1|Y~2_combout\ $end
$var wire 1 | \CHIP1|Add0~19\ $end
$var wire 1 } \CHIP1|Add0~20_combout\ $end
$var wire 1 ~ \CHIP1|Add0~21\ $end
$var wire 1 !! \CHIP1|Add0~22_combout\ $end
$var wire 1 "! \CHIP1|Y~3_combout\ $end
$var wire 1 #! \CHIP1|Add0~23\ $end
$var wire 1 $! \CHIP1|Add0~24_combout\ $end
$var wire 1 %! \CHIP1|Add0~25\ $end
$var wire 1 &! \CHIP1|Add0~26_combout\ $end
$var wire 1 '! \CHIP1|Add0~27\ $end
$var wire 1 (! \CHIP1|Add0~28_combout\ $end
$var wire 1 )! \CHIP1|Y~4_combout\ $end
$var wire 1 *! \CHIP1|Add0~29\ $end
$var wire 1 +! \CHIP1|Add0~30_combout\ $end
$var wire 1 ,! \CHIP1|Equal0~3_combout\ $end
$var wire 1 -! \CHIP1|Equal0~2_combout\ $end
$var wire 1 .! \CHIP1|Equal0~1_combout\ $end
$var wire 1 /! \CHIP1|Equal0~0_combout\ $end
$var wire 1 0! \CHIP1|Equal0~4_combout\ $end
$var wire 1 1! \CHIP1|Add0~31\ $end
$var wire 1 2! \CHIP1|Add0~32_combout\ $end
$var wire 1 3! \CHIP1|Add0~33\ $end
$var wire 1 4! \CHIP1|Add0~34_combout\ $end
$var wire 1 5! \CHIP1|Add0~35\ $end
$var wire 1 6! \CHIP1|Add0~36_combout\ $end
$var wire 1 7! \CHIP1|Y~5_combout\ $end
$var wire 1 8! \CHIP1|Add0~37\ $end
$var wire 1 9! \CHIP1|Add0~38_combout\ $end
$var wire 1 :! \CHIP1|Y~6_combout\ $end
$var wire 1 ;! \CHIP1|Add0~39\ $end
$var wire 1 <! \CHIP1|Add0~40_combout\ $end
$var wire 1 =! \CHIP1|Add0~41\ $end
$var wire 1 >! \CHIP1|Add0~42_combout\ $end
$var wire 1 ?! \CHIP1|Equal0~5_combout\ $end
$var wire 1 @! \CHIP1|Add0~43\ $end
$var wire 1 A! \CHIP1|Add0~44_combout\ $end
$var wire 1 B! \CHIP1|Y~7_combout\ $end
$var wire 1 C! \CHIP1|Equal0~6_combout\ $end
$var wire 1 D! \CHIP1|X~0_combout\ $end
$var wire 1 E! \CHIP1|X~feeder_combout\ $end
$var wire 1 F! \CHIP1|X~q\ $end
$var wire 1 G! \CHIP1|X~clkctrl_outclk\ $end
$var wire 1 H! \IN_S2~input_o\ $end
$var wire 1 I! \IN_S1~input_o\ $end
$var wire 1 J! \CHIP2|AUX~12_combout\ $end
$var wire 1 K! \CHIP2|AUX.EST_H1~q\ $end
$var wire 1 L! \CHIP2|Selector0~0_combout\ $end
$var wire 1 M! \CHIP2|AUX.EST_GB~q\ $end
$var wire 1 N! \CHIP2|AUX~13_combout\ $end
$var wire 1 O! \CHIP2|AUX.EST_H5~q\ $end
$var wire 1 P! \CHIP2|AUX~14_combout\ $end
$var wire 1 Q! \CHIP2|AUX.EST_H2~q\ $end
$var wire 1 R! \CHIP2|Selector1~0_combout\ $end
$var wire 1 S! \CHIP2|AUX.EST_PA~q\ $end
$var wire 1 T! \CHIP2|AUX~15_combout\ $end
$var wire 1 U! \CHIP2|AUX.EST_H3~q\ $end
$var wire 1 V! \CHIP2|Selector2~0_combout\ $end
$var wire 1 W! \CHIP2|AUX.EST_GP~q\ $end
$var wire 1 X! \CHIP2|AUX~11_combout\ $end
$var wire 1 Y! \CHIP2|AUX.EST_H4~q\ $end
$var wire 1 Z! \CHIP2|WideNor0~combout\ $end
$var wire 1 [! \CHIP2|WideNor1~combout\ $end
$var wire 1 \! \CHIP2|WideOr3~0_combout\ $end
$var wire 1 ]! \CHIP2|WideOr4~0_combout\ $end
$var wire 1 ^! \CHIP2|WideOr5~0_combout\ $end
$var wire 1 _! \CHIP3|Mux6~0_combout\ $end
$var wire 1 `! \CHIP3|Mux5~0_combout\ $end
$var wire 1 a! \CHIP3|Mux4~0_combout\ $end
$var wire 1 b! \CHIP3|Mux3~0_combout\ $end
$var wire 1 c! \CHIP3|Mux2~0_combout\ $end
$var wire 1 d! \CHIP3|Mux1~0_combout\ $end
$var wire 1 e! \CHIP3|Mux0~0_combout\ $end
$var wire 1 f! \CHIP1|Y\ [22] $end
$var wire 1 g! \CHIP1|Y\ [21] $end
$var wire 1 h! \CHIP1|Y\ [20] $end
$var wire 1 i! \CHIP1|Y\ [19] $end
$var wire 1 j! \CHIP1|Y\ [18] $end
$var wire 1 k! \CHIP1|Y\ [17] $end
$var wire 1 l! \CHIP1|Y\ [16] $end
$var wire 1 m! \CHIP1|Y\ [15] $end
$var wire 1 n! \CHIP1|Y\ [14] $end
$var wire 1 o! \CHIP1|Y\ [13] $end
$var wire 1 p! \CHIP1|Y\ [12] $end
$var wire 1 q! \CHIP1|Y\ [11] $end
$var wire 1 r! \CHIP1|Y\ [10] $end
$var wire 1 s! \CHIP1|Y\ [9] $end
$var wire 1 t! \CHIP1|Y\ [8] $end
$var wire 1 u! \CHIP1|Y\ [7] $end
$var wire 1 v! \CHIP1|Y\ [6] $end
$var wire 1 w! \CHIP1|Y\ [5] $end
$var wire 1 x! \CHIP1|Y\ [4] $end
$var wire 1 y! \CHIP1|Y\ [3] $end
$var wire 1 z! \CHIP1|Y\ [2] $end
$var wire 1 {! \CHIP1|Y\ [1] $end
$var wire 1 |! \CHIP1|Y\ [0] $end
$var wire 1 }! \CHIP3|ALT_INV_Mux3~0_combout\ $end
$upscope $end
$upscope $end
$enddefinitions $end
#0
$dumpvars
0!
0)
0*
1+
0,
1-
0.
1/
x0
11
12
13
14
15
16
07
18
09
1:
0;
0<
0V
zW
zX
zY
1Z
0[
1\
1]
1^
1_
1`
0a
0b
1c
0d
0e
1f
0g
0h
1i
0j
0k
0l
1m
0n
0o
0p
1q
0r
0s
0t
0u
1v
0w
0x
0y
0z
0{
1|
0}
0~
0!!
0"!
1#!
0$!
0%!
0&!
1'!
0(!
0)!
0*!
0+!
0,!
0-!
0.!
0/!
00!
11!
02!
03!
04!
15!
06!
07!
08!
09!
0:!
1;!
0<!
0=!
0>!
0?!
1@!
0A!
0B!
0C!
0D!
0E!
0F!
0G!
0H!
0I!
1J!
0K!
1L!
0M!
0N!
0O!
0P!
0Q!
0R!
0S!
0T!
0U!
0V!
0W!
0X!
0Y!
1Z!
0[!
1\!
1]!
0^!
1_!
1`!
1a!
0b!
0c!
0d!
1e!
1}!
1"
0#
0$
1%
1&
1'
1(
1=
0>
0?
1@
1A
1B
1C
0f!
0g!
0h!
0i!
0j!
0k!
0l!
0m!
0n!
0o!
0p!
0q!
0r!
0s!
0t!
0u!
0v!
0w!
0x!
0y!
0z!
0{!
0|!
1N
1O
1P
0Q
1R
1S
1T
0U
0D
0E
0F
0G
0H
0I
0J
0K
0L
0M
$end
#10000
1!
17
1d
1Q
1e
1|!
0f
1g
1h
#15000
1)
1;
1I!
#20000
0!
1*
07
1<
1H!
0d
0Q
0e
#30000
1!
0)
17
0;
0I!
1d
1Q
1e
0|!
1{!
0h
0i
1f
0g
1h
1i
1j
0j
#40000
0!
0*
07
0<
0H!
0d
0Q
0e
#45000
1)
1;
1I!
#50000
1!
17
1d
1Q
1e
1|!
0f
1g
0h
0i
1j
#60000
0!
0)
1*
07
0;
1<
1H!
0I!
0d
0Q
0e
#70000
1!
17
1d
1Q
1e
0|!
0{!
1z!
0j
1k
1h
1i
1f
0g
0h
1j
0k
1l
0l
#75000
1)
1;
1I!
#80000
0!
0*
07
0<
0H!
0d
0Q
0e
#90000
1!
0)
17
0;
0I!
1d
1Q
1e
1|!
0f
1g
1h
#100000
0!
1*
07
1<
1H!
0d
0Q
0e
#105000
1)
1;
1I!
#110000
1!
17
1d
1Q
1e
0|!
1{!
0h
0i
1f
0g
1h
1i
0j
1k
1l
1j
0k
0l
#120000
0!
0)
0*
07
0;
0<
0H!
0I!
0d
0Q
0e
#130000
1!
17
1d
1Q
1e
1|!
0f
1g
0h
0i
0j
1k
1l
#135000
1)
1;
1I!
#140000
0!
1*
07
1<
1H!
0d
0Q
0e
#150000
1!
0)
17
0;
0I!
1d
1Q
1e
0|!
0{!
0z!
1y!
0l
0m
1j
0k
1h
1i
1f
0g
0h
0j
1l
1m
1n
0n
#160000
0!
0*
07
0<
0H!
0d
0Q
0e
#165000
1)
1;
1I!
#170000
1!
17
1d
1Q
1e
1|!
0f
1g
1h
#180000
0!
0)
1*
07
0;
1<
1H!
0I!
0d
0Q
0e
#190000
1!
17
1d
1Q
1e
0|!
1{!
0h
0i
1f
0g
1h
1i
1j
0j
#195000
1)
1;
1I!
#200000
0!
0*
07
0<
0H!
0d
0Q
0e
#210000
1!
0)
17
0;
0I!
1d
1Q
1e
1|!
0f
1g
0h
0i
1j
#220000
0!
1*
07
1<
1H!
0d
0Q
0e
#225000
1)
1;
1I!
#230000
1!
17
1d
1Q
1e
0|!
0{!
1z!
0j
1k
1h
1i
1f
0g
0h
1j
0k
0l
0m
1n
1l
1m
0n
#240000
0!
0)
0*
07
0;
0<
0H!
0I!
0d
0Q
0e
#250000
1!
17
1d
1Q
1e
1|!
0f
1g
1h
#255000
1)
1;
1I!
#260000
0!
1*
07
1<
1H!
0d
0Q
0e
#270000
1!
0)
17
0;
0I!
1d
1Q
1e
0|!
1{!
0h
0i
1f
0g
1h
1i
0j
1k
0l
0m
1j
0k
1l
1m
1n
0n
#280000
0!
0*
07
0<
0H!
0d
0Q
0e
#285000
1)
1;
1I!
#290000
1!
17
1d
1Q
1e
1|!
0f
1g
0h
0i
0j
1k
0l
0m
1n
#300000
0!
0)
1*
07
0;
1<
1H!
0I!
0d
0Q
0e
#310000
1!
17
1d
1Q
1e
0|!
0{!
0z!
0y!
1x!
0n
1o
1l
1m
1j
0k
1h
1i
1f
0g
0h
0j
0l
1n
0o
1p
0p
#315000
1)
1;
1I!
#320000
0!
0*
07
0<
0H!
0d
0Q
0e
#330000
1!
0)
17
0;
0I!
1d
1Q
1e
1|!
0f
1g
1h
#340000
0!
1*
07
1<
1H!
0d
0Q
0e
#345000
1)
1;
1I!
#350000
1!
17
1d
1Q
1e
0|!
1{!
0h
0i
1f
0g
1h
1i
1j
0j
#360000
0!
0)
0*
07
0;
0<
0H!
0I!
0d
0Q
0e
#370000
1!
17
1d
1Q
1e
1|!
0f
1g
0h
0i
1j
#375000
1)
1;
1I!
#380000
0!
1*
07
1<
1H!
0d
0Q
0e
#390000
1!
0)
17
0;
0I!
1d
1Q
1e
0|!
0{!
1z!
0j
1k
1h
1i
1f
0g
0h
1j
0k
1l
0l
#400000
0!
0*
07
0<
0H!
0d
0Q
0e
#405000
1)
1;
1I!
#410000
1!
17
1d
1Q
1e
1|!
0f
1g
1h
#420000
0!
0)
1*
07
0;
1<
1H!
0I!
0d
0Q
0e
#430000
1!
17
1d
1Q
1e
0|!
1{!
0h
0i
1f
0g
1h
1i
0j
1k
1l
1j
0k
0l
#435000
1)
1;
1I!
#440000
0!
0*
07
0<
0H!
0d
0Q
0e
#450000
1!
0)
17
0;
0I!
1d
1Q
1e
1|!
0f
1g
0h
0i
0j
1k
1l
#460000
0!
1*
07
1<
1H!
0d
0Q
0e
#465000
1)
1;
1I!
#470000
1!
17
1d
1Q
1e
0|!
0{!
0z!
1y!
0l
0m
1j
0k
1h
1i
1f
0g
0h
0j
1l
1m
0n
1o
1p
1n
0o
0p
#480000
0!
0)
0*
07
0;
0<
0H!
0I!
0d
0Q
0e
#490000
1!
17
1d
1Q
1e
1|!
0f
1g
1h
#495000
1)
1;
1I!
#500000
0!
1*
07
1<
1H!
0d
0Q
0e
#510000
1!
0)
17
0;
0I!
1d
1Q
1e
0|!
1{!
0h
0i
1f
0g
1h
1i
1j
0j
#520000
0!
0*
07
0<
0H!
0d
0Q
0e
#525000
1)
1;
1I!
#530000
1!
17
1d
1Q
1e
1|!
0f
1g
0h
0i
1j
#540000
0!
0)
1*
07
0;
1<
1H!
0I!
0d
0Q
0e
#550000
1!
17
1d
1Q
1e
0|!
0{!
1z!
0j
1k
1h
1i
1f
0g
0h
1j
0k
0l
0m
0n
1o
1l
1m
1n
0o
1p
0p
#555000
1)
1;
1I!
#560000
0!
0*
07
0<
0H!
0d
0Q
0e
#570000
1!
0)
17
0;
0I!
1d
1Q
1e
1|!
0f
1g
1h
#580000
0!
1*
07
1<
1H!
0d
0Q
0e
#585000
1)
1;
1I!
#590000
1!
17
1d
1Q
1e
0|!
1{!
0h
0i
1.!
1f
0g
1h
1i
0j
1k
0l
0m
1j
0k
1l
1m
0n
1o
1p
1n
0o
0p
#600000
0!
0)
0*
07
0;
0<
0H!
0I!
0d
0Q
0e
#610000
1!
17
1d
1Q
1e
1|!
0f
1g
0h
0i
0j
1k
0l
0m
0n
1o
1p
#615000
1)
1;
1I!
#620000
0!
1*
07
1<
1H!
0d
0Q
0e
#630000
1!
0)
17
0;
0I!
1d
1Q
1e
0|!
0{!
0z!
0y!
0x!
1w!
0p
0q
1n
0o
1l
1m
1j
0k
1h
1i
0.!
1f
0g
0h
0j
0l
0n
1p
1q
1r
1s
0r
0s
#640000
0!
0*
07
0<
0H!
0d
0Q
0e
#645000
1)
1;
1I!
#650000
1!
17
1d
1Q
1e
1|!
0f
1g
1h
#660000
0!
0)
1*
07
0;
1<
1H!
0I!
0d
0Q
0e
#670000
1!
17
1d
1Q
1e
0|!
1{!
0h
0i
1f
0g
1h
1i
1j
0j
#675000
1)
1;
1I!
#680000
0!
0*
07
0<
0H!
0d
0Q
0e
#690000
1!
0)
17
0;
0I!
1d
1Q
1e
1|!
0f
1g
0h
0i
1j
#700000
0!
1*
07
1<
1H!
0d
0Q
0e
#705000
1)
1;
1I!
#710000
1!
17
1d
1Q
1e
0|!
0{!
1z!
0j
1k
1h
1i
1f
0g
0h
1j
0k
1l
0l
#720000
0!
0)
0*
07
0;
0<
0H!
0I!
0d
0Q
0e
#730000
1!
17
1d
1Q
1e
1|!
0f
1g
1h
#735000
1)
1;
1I!
#740000
0!
1*
07
1<
1H!
0d
0Q
0e
#750000
1!
0)
17
0;
0I!
1d
1Q
1e
0|!
1{!
0h
0i
1f
0g
1h
1i
0j
1k
1l
1j
0k
0l
#760000
0!
0*
07
0<
0H!
0d
0Q
0e
#765000
1)
1;
1I!
#770000
1!
17
1d
1Q
1e
1|!
0f
1g
0h
0i
0j
1k
1l
#780000
0!
0)
1*
07
0;
1<
1H!
0I!
0d
0Q
0e
#790000
1!
17
1d
1Q
1e
0|!
0{!
0z!
1y!
0l
0m
1j
0k
1h
1i
1f
0g
0h
0j
1l
1m
1n
0n
#795000
1)
1;
1I!
#800000
0!
0*
07
0<
0H!
0d
0Q
0e
#810000
1!
0)
17
0;
0I!
1d
1Q
1e
1|!
0f
1g
1h
#820000
0!
1*
07
1<
1H!
0d
0Q
0e
#825000
1)
1;
1I!
#830000
1!
17
1d
1Q
1e
0|!
1{!
0h
0i
1f
0g
1h
1i
1j
0j
#840000
0!
0)
0*
07
0;
0<
0H!
0I!
0d
0Q
0e
#850000
1!
17
1d
1Q
1e
1|!
0f
1g
0h
0i
1j
#855000
1)
1;
1I!
#860000
0!
1*
07
1<
1H!
0d
0Q
0e
#870000
1!
0)
17
0;
0I!
1d
1Q
1e
0|!
0{!
1z!
0j
1k
1h
1i
1f
0g
0h
1j
0k
0l
0m
1n
1l
1m
0n
#880000
0!
0*
07
0<
0H!
0d
0Q
0e
#885000
1)
1;
1I!
#890000
1!
17
1d
1Q
1e
1|!
0f
1g
1h
#900000
0!
0)
1*
07
0;
1<
1H!
0I!
0d
0Q
0e
#910000
1!
17
1d
1Q
1e
0|!
1{!
0h
0i
1f
0g
1h
1i
0j
1k
0l
0m
1j
0k
1l
1m
1n
0n
#915000
1)
1;
1I!
#920000
0!
0*
07
0<
0H!
0d
0Q
0e
#930000
1!
0)
17
0;
0I!
1d
1Q
1e
1|!
0f
1g
0h
0i
0j
1k
0l
0m
1n
#940000
0!
1*
07
1<
1H!
0d
0Q
0e
#945000
1)
1;
1I!
#950000
1!
17
1d
1Q
1e
0|!
0{!
0z!
0y!
1x!
0n
1o
1l
1m
1j
0k
1h
1i
1f
0g
0h
0j
0l
1n
0o
0p
0q
1r
1p
1q
0r
1s
0s
#960000
0!
0)
0*
07
0;
0<
0H!
0I!
0d
0Q
0e
#970000
1!
17
1d
1Q
1e
1|!
0f
1g
1h
#975000
1)
1;
1I!
#980000
0!
1*
07
1<
1H!
0d
0Q
0e
#990000
1!
0)
17
0;
0I!
1d
1Q
1e
0|!
1{!
0h
0i
1f
0g
1h
1i
1j
0j
